#-----------------------------------------------------------
# PlanAhead v14.7
# Build 321239 by xbuild on Fri Sep 27 19:31:35 MDT 2013
# Start of session at: Mon Sep 05 16:57:02 2016
# Process ID: 3716
# Log file: E:/Sumador_Restador/planAhead_run_4/planAhead.log
# Journal file: E:/Sumador_Restador/planAhead_run_4/planAhead.jou
#-----------------------------------------------------------
INFO: [Common 17-78] Attempting to get a license: PlanAhead
INFO: [Common 17-290] Got license for PlanAhead
INFO: [Device 21-36] Loading parts and site information from C:/Xilinx/14.7/ISE_DS/PlanAhead/data/parts/arch.xml
Parsing RTL primitives file [C:/Xilinx/14.7/ISE_DS/PlanAhead/data/parts/xilinx/rtl/prims/rtl_prims.xml]
Finished parsing RTL primitives file [C:/Xilinx/14.7/ISE_DS/PlanAhead/data/parts/xilinx/rtl/prims/rtl_prims.xml]
start_gui
source E:/Sumador_Restador/pa.fromNetlist.tcl
# create_project -name Sumador_Restador -dir "E:/Sumador_Restador/planAhead_run_5" -part xc7a100tcsg324-3
# set_property design_mode GateLvl [get_property srcset [current_run -impl]]
# set_property edif_top_file "E:/Sumador_Restador/sumador_restador.ngc" [ get_property srcset [ current_run ] ]
# add_files -norecurse { {E:/Sumador_Restador} }
# set_param project.pinAheadLayout  yes
# set_property target_constrs_file "sumador_restador.ucf" [current_fileset -constrset]
Adding file 'E:/Sumador_Restador/sumador_restador.ucf' to fileset 'constrs_1'
# add_files [list {sumador_restador.ucf}] -fileset [get_property constrset [current_run]]
# link_design
Design is defaulting to srcset: sources_1
Design is defaulting to constrset: constrs_1
Design is defaulting to project part: xc7a100tcsg324-3
WARNING: [Common 17-175] Failed to make directory to contain cached edif files [E:/Sumador_Restador/planAhead_run_5/Sumador_Restador.data/cache]
Release 14.7 - ngc2edif P.20131013 (nt)
Copyright (c) 1995-2013 Xilinx, Inc.  All rights reserved.

Release 14.7 - ngc2edif P.20131013 (nt)
Copyright (c) 1995-2013 Xilinx, Inc.  All rights reserved.
Reading design sumador_restador.ngc ...
WARNING:NetListWriters:298 - No output is written to sumador_restador.xncf,
   ignored.
Processing design ...
   Preping design's networks ...
   Preping design's macros ...
  finished :Prep
Writing EDIF netlist file sumador_restador.edif ...
ngc2edif: Total memory usage is 43216 kilobytes

Parsing EDIF File [./.Xil/PlanAhead-3716-M6b/ngc2edif/sumador_restador.edif]
Finished Parsing EDIF File [./.Xil/PlanAhead-3716-M6b/ngc2edif/sumador_restador.edif]
Loading clock regions from C:/Xilinx/14.7/ISE_DS/PlanAhead/data\parts/xilinx/artix7/artix7/xc7a100t/ClockRegion.xml
Loading clock buffers from C:/Xilinx/14.7/ISE_DS/PlanAhead/data\parts/xilinx/artix7/artix7/xc7a100t/ClockBuffers.xml
Loading clock placement rules from C:/Xilinx/14.7/ISE_DS/PlanAhead/data/parts/xilinx/artix7/ClockPlacerRules.xml
Loading package pin functions from C:/Xilinx/14.7/ISE_DS/PlanAhead/data\parts/xilinx/artix7/PinFunctions.xml...
Loading package from C:/Xilinx/14.7/ISE_DS/PlanAhead/data\parts/xilinx/artix7/artix7/xc7a100t/csg324/Package.xml
Loading io standards from C:/Xilinx/14.7/ISE_DS/PlanAhead/data\./parts/xilinx/artix7/IOStandards.xml
Loading device configuration modes from C:/Xilinx/14.7/ISE_DS/PlanAhead/data\parts/xilinx/artix7/ConfigModes.xml
Loading list of drcs for the architecture : C:/Xilinx/14.7/ISE_DS/PlanAhead/data\./parts/xilinx/artix7/drc.xml
Parsing UCF File [E:/Sumador_Restador/sumador_restador.ucf]
Finished Parsing UCF File [E:/Sumador_Restador/sumador_restador.ucf]
INFO: [Project 1-111] Unisim Transformation Summary:
No Unisim elements were transformed.

Phase 0 | Netlist Checksum: bb4364c1
link_design: Time (s): elapsed = 00:00:24 . Memory (MB): peak = 669.156 ; gain = 255.383
exit
ERROR: [PlanAhead 12-106] *** Exception: ui.h.b: Found deleted key in HTclEventBroker. Verify if the classes listed here call cleanup()
HTclEvent: SIGNAL_BUS_MODIFY   Classes: ui.views.aR 
HTclEvent: SIGNAL_MODIFY   Classes: ui.views.aR 
HTclEvent: DEBUG_PORT_CONFIG_CHANGE   Classes: ui.views.aR 
HTclEvent: DEBUG_CORE_CONFIG_CHANGE   Classes: ui.views.aR 
 (See E:/Sumador_Restador\planAhead_pid3716.debug)
ERROR: [Common 17-39] 'stop_gui' failed due to earlier errors.
INFO: [Common 17-206] Exiting PlanAhead at Mon Sep 05 17:03:29 2016...
INFO: [Common 17-83] Releasing license: PlanAhead
